1 , 2 , 3 , 4 , 5 , 6 , 7 , 8 , 9 , 10 , 11 , 12 , 13 , 14 , 15 , 16 , 17 , 18 , 19 , 20 , 21 , 22 , 23 , 24 , 25 , 26 , 27 , 28 , 29 , 30 , 31 , 32 , 33 , 34 , 35 , 36 , 37 , 38 , 39 , 40 , 41 , 42 , 43 , 44 , 45 , 46 , 47 , 48 , 49 , 50 , 51 , 52 , 53 , 54 , 55 , 56 , 57 , 58 , 59 , 60 , 61 , 62 , 63 , 64 , 65 , 66 , 67 , 68 , 69 , 70 , 71 , 72 , 73 , 74 , 75 , 76 , 77 , 78 , 79 , 80 , 81 , 82 , 83 , 84 , 85 , 86 , 87 , 88 , 89 , 90 , 91 , 92 , 93 , 94 , 95 , 96 , 97 , 98 , 99 , 100
21,21,21,21,21,21,21,21,21,21,22,22,22,22,22,22,23,23,23,23,23,23,23,23,23,23,24,24,24,24,24,25,25,25,25,25,26,26,26,26,26,26,26,26,26,26,26,26,27,28,29,30,30,29,28,28,29,29,30,31,32,32,32,32,32,37,39,39,39,39,40,38,36,34,30,28,30,48,49,49,49,49,49,49,100,100,100,100,100,100,100,100,100,100,100,100,100,100,100,100
21,21,21,21,21,21,21,21,21,21,21,22,22,22,22,22,22,23,23,23,23,23,23,23,23,23,23,24,24,24,24,24,25,25,25,25,25,26,26,26,26,26,26,26,26,26,26,27,28,29,29,30,29,28,28,28,28,29,30,31,32,32,32,33,35,37,38,39,39,39,39,38,35,33,29,28,29,48,49,49,49,49,49,49,99,99,99,99,99,99,99,99,99,99,99,99,99,99,99,99
21,21,21,21,21,21,21,21,21,21,21,21,22,22,22,22,22,22,23,23,23,23,23,23,23,23,23,24,24,24,24,24,24,25,25,25,25,25,25,25,25,25,25,25,25,26,26,27,28,29,29,29,29,28,27,28,28,29,31,32,32,32,32,34,35,37,38,38,38,39,38,37,35,32,29,28,29,48,48,48,48,48,48,48,98,98,98,98,98,98,98,98,98,98,98,98,98,98,98,98
21,21,21,21,21,21,21,21,21,21,21,21,22,22,22,22,22,22,22,22,22,23,23,23,23,23,23,24,24,24,24,24,24,24,25,25,25,25,25,25,25,25,25,25,25,26,27,27,28,29,29,29,28,27,27,28,28,29,31,32,32,32,32,34,36,37,38,38,38,38,38,36,34,31,28,28,29,47,48,48,48,48,48,48,97,97,97,97,97,97,97,97,97,97,97,97,97,97,97,97
20,21,21,21,21,21,21,21,21,21,21,21,22,22,22,22,22,22,22,22,22,22,23,23,23,23,23,23,24,24,24,24,24,24,25,25,25,25,25,25,25,25,25,25,26,26,27,28,28,29,29,28,28,27,27,28,29,30,31,32,32,32,32,34,35,37,37,37,38,38,37,35,33,30,27,28,29,47,47,47,47,47,47,47,96,96,96,96,96,96,96,96,96,96,96,96,96,96,96,96
20,20,20,20,20,21,21,21,21,21,21,21,22,22,22,22,22,22,22,22,22,22,23,23,23,23,23,23,24,24,24,24,24,24,24,25,25,25,25,25,25,25,25,25,26,26,27,28,28,28,28,28,27,26,27,28,29,31,31,31,31,32,33,34,36,37,37,37,37,37,36,35,32,29,26,27,30,46,47,47,47,47,47,47,95,95,95,95,95,95,95,95,95,95,95,95,95,95,95,95
20,20,20,20,20,20,21,21,21,21,21,22,22,22,22,22,22,22,22,22,22,22,22,23,23,23,23,23,24,24,24,24,24,24,24,24,25,25,25,25,25,25,25,26,26,27,27,28,28,28,28,27,27,26,27,28,30,31,31,31,31,32,33,35,36,36,37,37,37,37,36,34,31,29,26,27,45,46,46,46,46,46,46,46,94,94,94,94,94,94,94,94,94,94,94,94,94,94,94,94
20,20,20,20,20,20,20,21,21,21,21,21,22,22,22,22,22,22,22,22,22,22,22,23,23,23,23,23,23,24,24,24,24,24,24,24,24,25,25,25,25,25,25,26,26,27,27,27,28,28,27,27,26,26,27,29,30,30,31,31,31,32,33,35,36,36,36,36,36,36,35,33,31,28,26,27,45,45,46,46,46,46,46,46,93,93,93,93,93,93,93,93,93,93,93,93,93,93,93,93
20,20,20,20,20,20,20,21,21,21,21,21,21,21,21,21,22,22,22,22,22,22,22,23,23,23,23,23,23,23,23,23,24,24,24,24,24,24,25,25,25,25,26,26,26,27,27,27,27,27,27,26,26,26,28,30,30,30,30,31,31,32,33,35,35,36,36,36,36,36,34,32,30,27,26,27,44,45,45,45,45,45,45,45,92,92,92,92,92,92,92,92,92,92,92,92,92,92,92,92
20,20,20,20,20,20,21,21,21,21,21,21,21,21,21,21,21,22,22,22,22,22,22,23,23,23,23,23,23,23,23,23,24,24,24,24,24,24,25,25,25,25,26,26,26,27,27,27,27,27,26,26,25,27,29,30,30,30,30,30,31,32,33,35,35,35,35,36,36,35,33,31,29,26,26,27,44,45,45,45,45,45,45,91,91,91,91,91,91,91,91,91,91,91,91,91,91,91,91,91
20,20,20,20,20,20,21,21,21,21,21,21,21,21,21,21,21,22,22,22,22,22,22,22,23,23,23,23,23,23,23,23,23,24,24,24,24,25,25,25,25,25,26,26,26,26,27,27,27,26,26,25,25,28,29,29,29,30,30,30,31,32,34,35,35,35,35,35,35,34,33,31,28,25,25,43,43,44,44,44,44,44,44,90,90,90,90,90,90,90,90,90,90,90,90,90,90,90,90,90
20,20,20,20,20,21,21,21,21,21,21,21,21,21,21,21,21,22,22,22,22,22,22,22,23,23,23,23,23,23,23,23,23,24,24,24,24,25,25,25,25,25,26,26,26,26,26,26,26,26,25,25,26,29,29,29,29,29,30,30,31,33,34,34,34,34,35,35,35,33,32,30,27,25,25,42,43,44,44,44,44,44,44,89,89,89,89,89,89,89,89,89,89,89,89,89,89,89,89,89
20,20,20,20,20,21,21,21,21,21,21,21,21,21,21,21,21,22,22,22,22,22,22,22,22,22,22,22,22,23,23,23,24,24,24,24,24,24,24,25,25,25,25,26,26,26,26,26,26,25,25,25,28,28,29,29,29,29,30,30,31,33,34,34,34,34,34,34,34,33,31,29,27,24,25,42,42,43,43,43,43,43,43,88,88,88,88,88,88,88,88,88,88,88,88,88,88,88,88,88
20,20,20,20,20,20,20,21,21,21,21,21,21,21,21,21,21,21,22,22,22,22,22,22,22,22,22,22,22,23,23,23,24,24,24,24,24,24,24,25,25,25,25,25,26,26,26,26,25,25,24,26,28,28,28,29,29,29,29,30,32,33,33,33,34,34,34,34,33,32,30,28,26,24,25,41,42,43,43,43,43,43,43,87,87,87,87,87,87,87,87,87,87,87,87,87,87,87,87,87
20,20,20,20,20,20,20,20,21,21,21,21,21,21,21,21,21,21,22,22,22,22,22,22,22,22,22,22,22,23,23,23,24,24,24,24,24,24,24,24,25,25,25,25,25,26,26,25,25,24,25,27,28,28,28,28,29,29,30,31,32,33,33,33,33,33,34,33,33,31,29,27,25,24,40,41,42,42,42,42,42,42,42,86,86,86,86,86,86,86,86,86,86,86,86,86,86,86,86,86
20,20,20,20,20,20,20,20,20,21,21,21,21,21,21,21,21,21,21,21,22,22,22,22,22,22,22,22,22,23,23,23,24,24,24,24,24,24,24,24,24,25,25,25,25,25,25,25,25,24,27,27,27,28,28,28,28,29,30,31,32,32,33,33,33,33,33,33,32,30,29,27,24,24,40,40,41,42,42,42,42,42,42,85,85,85,85,85,85,85,85,85,85,85,85,85,85,85,85,85
20,20,20,20,20,20,20,20,20,20,21,21,21,21,21,21,21,21,21,21,21,21,21,21,21,22,22,22,22,23,23,23,23,23,23,23,24,24,24,24,24,24,25,25,25,25,25,25,24,26,27,27,27,27,28,28,28,29,30,31,32,32,32,32,32,33,33,32,31,30,28,26,23,23,39,40,41,41,41,41,41,41,41,84,84,84,84,84,84,84,84,84,84,84,84,84,84,84,84,84
20,20,20,20,20,20,20,20,20,20,20,21,21,21,21,21,21,21,21,21,21,21,21,21,21,21,22,22,23,23,23,23,23,23,23,23,23,23,24,24,24,24,24,25,25,25,25,24,24,26,26,27,27,27,28,28,28,29,30,31,32,32,32,32,32,32,32,31,30,29,27,25,23,24,39,40,40,41,41,41,41,41,41,83,83,83,83,83,83,83,83,83,83,83,83,83,83,83,83,83
19,20,20,20,20,20,20,20,20,20,20,20,20,20,21,21,21,21,21,21,21,21,21,21,21,22,22,22,23,23,23,23,23,23,23,23,23,23,23,24,24,24,24,25,25,25,24,24,25,26,26,27,27,27,27,28,29,29,31,31,31,31,31,32,32,32,32,31,30,28,26,24,22,38,39,39,40,40,40,40,40,40,42,82,82,82,82,82,82,82,82,82,82,82,82,82,82,82,82,82
19,19,20,20,20,20,20,20,20,20,20,20,20,20,20,20,20,21,21,21,21,21,21,21,21,22,22,22,23,23,23,23,23,23,23,23,23,23,23,23,24,24,24,25,25,24,24,25,25,26,26,26,27,27,27,28,28,30,30,31,31,31,31,31,31,32,31,30,29,27,25,23,22,37,38,39,40,40,40,40,40,40,81,81,81,81,81,81,81,81,81,81,81,81,81,81,81,81,81,81
19,19,19,20,20,20,20,20,20,20,20,20,20,20,20,20,20,20,20,21,21,21,21,21,22,22,22,22,22,22,23,23,22,22,22,23,23,23,23,23,24,24,24,25,24,24,24,25,25,25,26,26,27,27,27,28,29,30,30,30,30,31,31,31,31,31,30,29,28,26,25,23,22,37,38,39,39,39,39,39,39,39,80,80,80,80,80,80,80,80,80,80,80,80,80,80,80,80,80,80
19,19,19,19,20,20,20,20,20,20,20,20,20,20,20,20,20,20,20,20,21,21,21,21,22,22,22,22,22,22,22,22,22,22,22,22,22,23,23,23,24,24,24,24,24,24,24,25,25,25,26,26,26,27,28,28,29,30,30,30,30,30,30,30,31,30,30,29,27,26,24,22,36,37,37,38,39,39,39,39,39,39,79,79,79,79,79,79,79,79,79,79,79,79,79,79,79,79,79,79
19,19,19,19,19,19,19,19,19,19,19,20,20,20,20,20,20,20,20,20,21,21,21,21,22,22,22,22,22,22,22,22,22,22,22,22,22,22,23,23,24,24,24,24,24,24,24,25,25,25,26,26,26,27,28,28,29,29,29,30,30,30,30,30,30,30,29,28,26,25,23,21,36,36,37,38,38,38,38,38,38,38,78,78,78,78,78,78,78,78,78,78,78,78,78,78,78,78,78,78
19,19,19,19,19,19,19,19,19,19,19,19,19,19,20,20,20,20,20,20,21,21,21,21,22,22,22,22,22,22,22,22,22,22,22,22,22,22,23,23,24,24,24,24,24,24,24,24,25,25,25,26,26,27,28,28,29,29,29,29,29,29,30,30,30,29,28,27,26,24,22,21,35,36,37,37,38,38,38,38,38,38,77,77,77,77,77,77,77,77,77,77,77,77,77,77,77,77,77,77
19,19,19,19,19,19,19,19,19,19,19,19,19,19,19,20,20,20,20,20,21,21,21,21,21,22,22,22,22,22,21,21,21,22,22,22,22,22,23,24,24,24,24,23,23,24,24,24,25,25,25,26,27,27,28,28,29,29,29,29,29,29,29,29,29,28,27,26,25,23,21,34,35,36,36,37,37,37,37,37,37,37,76,76,76,76,76,76,76,76,76,76,76,76,76,76,76,76,76,76
19,19,19,19,19,19,19,19,19,19,19,19,19,19,19,20,20,20,20,21,21,21,21,21,21,21,21,21,21,21,21,21,21,21,22,22,22,23,23,24,24,24,23,23,23,23,24,24,25,25,26,26,26,27,28,28,28,28,28,28,29,29,29,29,28,28,27,25,24,22,21,34,34,35,36,37,37,37,37,37,37,75,75,75,75,75,75,75,75,75,75,75,75,75,75,75,75,75,75,75
19,19,19,19,18,18,18,18,18,19,19,19,19,19,19,20,20,20,20,21,21,21,21,21,21,21,21,21,21,21,21,21,21,21,22,22,22,23,24,24,23,23,23,23,23,23,24,24,25,25,26,26,27,27,27,28,28,28,28,28,28,28,29,28,28,27,26,25,23,22,20,33,34,35,35,36,36,36,36,36,36,74,74,74,74,74,74,74,74,74,74,74,74,74,74,74,74,74,74,74
18,18,18,18,18,18,18,18,18,18,19,19,19,19,20,20,20,20,20,20,21,21,21,21,21,21,21,21,21,21,21,21,21,21,22,22,23,23,23,23,23,23,22,23,23,23,24,24,25,25,26,26,27,27,27,27,27,28,28,28,28,28,28,28,27,26,25,24,22,21,33,33,34,34,35,36,36,36,36,36,36,73,73,73,73,73,73,73,73,73,73,73,73,73,73,73,73,73,73,73
18,18,18,18,18,18,18,18,18,18,19,19,19,20,20,20,20,20,20,20,21,21,21,21,21,21,21,20,20,20,21,21,21,21,22,23,23,23,23,23,23,22,22,22,23,23,24,24,25,25,26,26,26,27,27,27,27,27,27,27,28,28,28,27,26,25,24,23,22,20,32,33,33,34,35,35,35,35,35,35,35,72,72,72,72,72,72,72,72,72,72,72,72,72,72,72,72,72,72,72
18,18,18,18,18,18,18,18,18,19,19,19,19,20,20,20,20,20,20,20,20,20,20,20,20,20,20,20,20,20,20,21,21,22,23,23,23,23,23,22,22,22,22,22,23,23,24,24,25,25,26,26,26,26,26,27,27,27,27,27,27,27,27,27,26,25,24,22,21,31,32,32,33,34,34,35,35,35,35,35,35,71,71,71,71,71,71,71,71,71,71,71,71,71,71,71,71,71,71,71
17,17,17,17,18,18,18,18,19,19,19,19,20,20,20,20,20,20,20,20,20,20,20,20,20,20,20,20,20,20,21,21,22,22,22,22,22,22,22,22,22,22,22,22,23,24,24,25,25,25,25,26,26,26,26,26,26,26,27,27,27,27,27,26,25,24,23,22,20,31,31,32,33,33,34,34,34,34,34,34,35,70,70,70,70,70,70,70,70,70,70,70,70,70,70,70,70,70,70,70
17,17,17,17,18,18,18,19,19,19,19,19,20,20,20,20,20,20,20,20,20,20,20,20,20,20,20,20,20,20,21,22,22,22,22,22,22,22,22,21,21,22,22,23,23,24,24,25,25,25,25,25,25,26,26,26,26,26,26,26,27,27,26,25,24,23,22,21,30,30,31,32,32,33,34,34,34,34,34,34,69,69,69,69,69,69,69,69,69,69,69,69,69,69,69,69,69,69,69,69
17,17,17,17,18,18,19,19,19,19,19,19,19,19,19,20,20,20,20,20,20,20,20,20,20,20,20,20,20,21,21,22,22,22,22,22,22,21,21,21,21,22,22,23,23,24,24,24,25,25,25,25,25,25,25,26,26,26,26,26,27,27,26,25,24,23,22,21,30,30,31,31,32,33,33,33,33,33,33,33,68,68,68,68,68,68,68,68,68,68,68,68,68,68,68,68,68,68,68,68
17,17,18,18,18,19,19,19,19,19,19,19,19,19,19,19,19,19,19,19,19,19,19,19,19,20,20,20,21,21,21,21,21,21,21,21,21,21,21,21,21,22,22,23,24,24,24,24,24,24,24,25,25,25,25,25,25,25,26,27,27,26,25,24,23,22,21,29,29,30,30,31,32,32,33,33,33,33,33,33,67,67,67,67,67,67,67,67,67,67,67,67,67,67,67,67,67,67,67,67
17,18,18,18,19,19,19,19,19,19,19,19,19,19,19,19,19,19,19,19,19,19,19,19,19,20,20,21,21,21,21,21,21,21,21,21,21,21,21,21,22,22,23,23,24,24,24,24,24,24,24,24,25,25,25,25,25,25,27,28,27,26,25,24,23,22,21,28,29,29,30,31,31,32,32,32,32,32,32,32,66,66,66,66,66,66,66,66,66,66,66,66,66,66,66,66,66,66,66,66
18,18,18,19,19,19,19,19,19,19,19,19,19,19,19,19,19,19,19,19,19,19,19,19,20,20,20,20,21,21,21,21,21,21,21,21,21,20,21,22,22,23,23,23,23,23,23,23,24,24,024,24,24,24,24,25,25,25,29,28,27,26,25,23,22,21,27,28,28,29,30,30,31,32,32,32,32,32,32,65,65,65,65,65,65,65,65,65,65,65,65,65,65,65,65,65,65,65,65,65
18,18,19,19,19,19,19,19,19,19,19,19,19,19,19,19,19,19,19,19,19,19,19,20,20,20,20,20,20,20,20,20,20,20,20,20,20,21,21,22,22,23,23,23,23,23,23,23,23,23,24,24,24,24,24,24,25,29,28,28,27,26,24,23,22,27,27,28,28,29,29,30,31,31,31,31,31,31,31,64,64,64,64,64,64,64,64,64,64,64,64,64,64,64,64,64,64,64,64,64
18,18,18,18,18,18,18,18,18,18,18,19,19,19,19,19,19,19,19,19,19,19,19,20,20,20,20,20,20,20,20,20,20,20,20,20,21,21,22,22,22,22,23,23,23,23,23,23,23,23,23,23,23,24,24,25,29,28,28,27,26,25,25,25,26,26,27,27,28,28,29,30,30,31,31,31,31,31,31,63,63,63,63,63,63,63,63,63,63,63,63,63,63,63,63,63,63,63,63,63
18,18,18,18,18,18,18,18,18,18,18,18,18,18,18,19,19,19,19,19,19,19,19,19,19,19,19,20,20,20,20,20,20,20,20,20,21,22,22,22,22,22,22,22,22,22,22,22,23,23,23,23,23,23,24,29,28,27,27,26,25,24,25,25,25,26,26,27,28,28,29,29,30,30,30,30,30,30,31,62,62,62,62,62,62,62,62,62,62,62,62,62,62,62,62,62,62,62,62,62
18,18,18,18,18,18,18,18,18,18,18,18,18,18,18,18,18,19,19,19,19,19,19,19,19,19,19,19,19,19,19,20,20,20,20,21,21,21,22,22,22,22,22,22,22,22,22,22,22,23,23,23,23,29,28,28,27,27,26,25,25,24,24,25,25,26,26,27,27,28,28,29,30,30,30,30,30,30,61,61,61,61,61,61,61,61,61,61,61,61,61,61,61,61,61,61,61,61,61,61
18,18,18,18,18,18,18,18,18,18,18,18,18,18,18,18,18,18,18,18,19,19,19,19,19,19,19,19,19,19,19,19,20,20,21,21,21,21,21,21,21,21,21,21,21,22,22,22,22,22,22,23,28,28,27,27,27,26,25,25,24,24,24,24,25,25,26,26,27,27,28,29,29,29,29,29,29,29,60,60,60,60,60,60,60,60,60,60,60,60,60,60,60,60,60,60,60,60,60,60
18,18,18,18,18,18,18,18,18,18,18,18,18,18,18,18,18,18,18,18,18,18,18,18,18,19,19,19,19,19,19,19,20,20,21,21,21,21,21,21,21,21,21,21,21,21,21,22,22,22,22,28,27,27,27,26,26,25,24,24,23,23,24,24,24,25,25,26,27,27,28,28,29,29,29,29,29,29,59,59,59,59,59,59,59,59,59,59,59,59,59,59,59,59,59,59,59,59,59,59
17,17,17,17,18,18,18,18,18,18,18,18,18,18,18,18,18,18,18,18,18,18,18,18,18,18,18,19,19,19,19,20,20,20,20,20,20,20,20,20,21,21,21,21,21,21,21,21,22,22,27,27,27,26,26,25,25,24,24,23,23,23,23,24,24,25,25,26,26,27,27,28,28,28,28,28,28,58,58,58,58,58,58,58,58,58,58,58,58,58,58,58,58,58,58,58,58,58,58,58
17,17,17,17,17,17,17,17,17,17,17,17,17,17,17,17,17,17,18,18,18,18,18,18,18,18,18,18,19,19,19,20,20,20,20,20,20,20,20,20,20,20,20,20,20,21,21,21,27,27,27,26,26,26,25,25,24,24,23,22,22,23,23,23,24,24,25,25,26,27,27,28,28,28,28,28,28,57,57,57,57,57,57,57,57,57,57,57,57,57,57,57,57,57,57,57,57,57,57,57
17,17,17,17,17,17,17,17,17,17,17,17,17,17,17,17,17,17,17,17,17,17,18,18,18,18,18,19,19,19,20,20,20,20,20,20,20,20,20,20,20,20,20,20,20,20,21,27,26,26,26,26,25,25,24,24,23,23,22,22,22,22,23,23,24,24,25,25,26,26,27,27,27,27,27,27,56,56,56,56,56,56,56,56,56,56,56,56,56,56,56,56,56,56,56,56,56,56,56,56
17,17,17,17,17,17,17,17,17,17,17,17,17,17,17,17,17,17,17,17,17,17,17,18,18,18,18,19,19,20,20,20,20,20,19,19,19,19,19,19,19,19,20,20,20,21,26,26,26,25,25,25,24,24,24,23,23,22,21,21,22,22,22,23,23,24,24,25,25,26,27,27,27,27,27,27,55,55,55,55,55,55,55,55,55,55,55,55,55,55,55,55,55,55,55,55,55,55,55,55
16,16,16,16,16,16,16,16,16,16,16,16,16,16,16,16,17,17,17,17,17,17,17,18,18,18,19,19,19,19,19,19,19,19,19,19,19,19,19,19,19,19,19,20,26,26,25,25,25,25,24,24,24,23,23,22,22,21,21,21,21,22,22,23,23,24,24,25,25,26,26,26,26,26,26,27,54,54,54,54,54,54,54,54,54,54,54,54,54,54,54,54,54,54,54,54,54,54,54,54
16,16,16,16,16,16,16,16,16,16,16,16,16,16,16,16,16,17,17,17,17,17,18,18,19,19,19,19,19,19,19,19,19,19,19,18,18,19,19,19,19,19,20,25,25,25,25,24,24,24,24,23,23,23,22,22,21,20,20,21,21,21,22,22,23,23,24,24,25,25,26,26,26,26,26,53,53,53,53,53,53,53,53,53,53,53,53,53,53,53,53,53,53,53,53,53,53,53,53,53
16,16,15,15,15,15,15,15,16,16,16,16,16,16,16,16,16,16,17,17,17,18,18,19,19,19,19,19,19,19,19,19,18,18,18,18,18,18,18,18,19,25,25,25,24,24,24,24,24,23,23,23,22,22,21,21,20,20,20,20,21,21,22,22,23,23,24,24,25,25,25,25,25,25,26,52,52,52,52,52,52,52,52,52,52,52,52,52,52,52,52,52,52,52,52,52,52,52,52,52
15,15,15,15,15,15,15,15,15,15,15,16,16,16,16,16,16,17,17,18,18,19,19,19,19,19,19,19,19,18,18,18,18,18,18,18,18,18,18,24,24,24,24,24,24,23,23,23,23,22,22,22,21,21,21,20,20,19,20,20,20,21,21,22,22,23,23,24,24,25,25,25,25,25,51,51,51,51,51,51,51,51,51,51,51,51,51,51,51,51,51,51,51,51,51,51,51,51,51,51
15,15,15,15,15,15,15,15,15,15,15,15,16,16,16,16,17,18,18,18,19,19,19,19,19,19,18,18,18,18,18,18,17,17,17,17,18,19,24,24,23,23,23,23,23,23,23,22,22,22,21,21,21,20,20,19,19,19,19,20,20,21,21,22,22,23,23,23,24,24,24,24,24,50,50,50,50,50,50,50,50,50,50,50,50,50,50,50,50,50,50,50,50,50,50,50,50,50,50,50
14,14,14,14,15,15,15,15,15,15,15,15,16,16,17,18,18,18,18,18,18,18,18,18,18,18,18,18,18,17,17,17,17,17,17,18,23,23,23,23,23,23,23,22,22,22,22,22,21,21,21,20,20,19,19,19,18,19,19,20,20,20,21,21,22,22,23,23,24,24,24,24,24,49,49,49,49,49,49,49,49,49,49,49,49,49,49,49,49,49,49,49,49,49,49,49,49,49,49,49
14,14,14,14,14,14,15,15,15,15,16,16,17,18,18,18,18,18,18,18,18,18,18,18,18,17,17,17,17,17,17,17,17,18,23,23,22,22,22,22,22,22,22,22,21,21,21,21,21,20,20,19,19,19,18,18,18,19,19,19,20,20,21,21,22,22,22,23,23,23,23,23,48,48,48,48,48,48,48,48,48,48,48,48,48,48,48,48,48,48,48,48,48,48,48,48,48,48,48,48
14,14,14,14,14,15,15,15,16,17,17,18,18,18,18,18,18,18,18,18,18,18,17,17,17,17,17,17,16,16,16,22,22,22,22,22,22,22,22,22,21,21,21,21,21,21,20,20,20,19,19,19,18,18,18,18,18,18,19,19,20,20,20,21,21,22,22,23,23,23,23,47,47,47,47,47,47,47,47,47,47,47,47,47,47,47,47,47,47,47,47,47,47,47,47,47,47,47,47,47
14,14,14,14,15,16,16,17,17,17,17,18,18,18,18,18,18,17,17,17,17,17,17,17,17,16,16,16,16,21,21,21,21,21,21,21,21,21,21,21,21,21,20,20,20,20,20,19,19,19,18,18,18,17,17,17,18,18,19,19,19,20,20,21,21,22,22,22,22,22,23,46,46,46,46,46,46,46,46,46,46,46,46,46,46,46,46,46,46,46,46,46,46,46,46,46,46,46,46,46
14,15,15,16,17,17,17,17,17,17,17,17,17,17,17,17,17,17,17,17,17,17,16,16,16,16,21,21,21,21,21,21,21,21,21,21,21,20,20,20,20,20,20,19,19,19,19,18,18,18,18,17,17,17,17,17,18,18,18,19,19,20,20,20,21,21,22,22,22,22,45,45,45,45,45,45,45,45,45,45,45,45,45,45,45,45,45,45,45,45,45,45,45,45,45,45,45,45,45,45
16,17,17,17,17,17,17,17,17,17,17,17,17,17,17,17,17,16,16,16,16,16,16,20,20,20,20,20,20,20,20,20,20,20,20,20,20,20,20,19,19,19,19,19,19,18,18,18,17,17,17,16,16,16,17,17,17,18,18,19,19,19,20,20,21,21,21,21,21,44,44,44,44,44,44,44,44,44,44,44,44,44,44,44,44,44,44,44,44,44,44,44,44,44,44,44,44,44,44,44
17,17,17,17,17,17,17,17,17,17,17,17,17,16,16,16,16,16,16,16,20,20,20,20,20,20,20,20,20,20,20,20,20,19,19,19,19,19,19,19,19,18,18,18,18,17,17,17,17,16,16,16,16,16,17,17,17,18,18,18,19,19,20,20,20,21,21,21,43,43,43,43,43,43,43,43,43,43,43,43,43,43,43,43,43,43,43,43,43,43,43,43,43,43,43,43,43,43,43,43
17,17,17,17,17,17,17,16,16,16,16,16,16,16,16,16,16,19,19,19,19,19,19,19,19,19,19,19,19,19,19,19,19,19,19,19,18,18,18,18,18,18,17,17,17,17,16,16,16,16,15,15,16,16,16,17,17,17,18,18,19,19,19,20,20,20,21,42,42,42,42,42,42,42,42,42,42,42,42,42,42,42,42,42,42,42,42,42,42,42,42,42,42,42,42,42,42,42,42,42
17,16,16,16,16,16,16,16,16,16,16,16,16,19,19,19,19,19,19,19,19,19,19,19,19,19,19,18,18,18,18,18,18,18,18,18,18,18,17,17,17,17,17,16,16,16,16,15,15,15,15,15,16,16,16,17,17,17,18,18,18,19,19,20,20,21,41,41,41,41,41,41,41,41,41,41,41,41,41,41,41,41,41,41,41,41,41,41,41,41,41,41,41,41,41,41,41,41,41,41
16,16,16,16,16,16,16,18,18,18,18,18,18,18,18,18,18,18,18,18,18,18,18,18,18,18,18,18,18,18,18,18,17,17,17,17,17,17,17,16,16,16,16,16,15,15,15,15,14,14,15,15,15,16,16,16,17,17,17,18,18,19,19,19,40,40,40,40,40,40,40,40,40,40,40,40,40,40,40,40,40,40,40,40,40,40,40,40,40,40,40,40,40,40,40,40,40,40,40,40
16,16,17,17,17,17,17,18,18,18,18,18,18,18,18,18,18,18,18,17,17,17,17,17,17,17,17,17,17,17,17,17,17,17,16,16,16,16,16,16,16,15,15,15,15,15,14,14,14,14,15,15,15,16,16,16,17,17,17,18,18,18,20,39,39,39,39,39,39,39,39,39,39,39,39,39,39,39,39,39,39,39,39,39,39,39,39,39,39,39,39,39,39,39,39,39,39,39,39,39
17,17,17,17,17,17,17,17,17,17,17,17,17,17,17,17,17,17,17,17,17,17,17,17,17,17,16,16,16,16,16,16,16,16,16,16,15,15,15,15,15,15,14,14,14,14,14,14,14,14,14,15,15,15,16,16,16,17,17,17,18,38,38,38,38,38,38,38,38,38,38,38,38,38,38,38,38,38,38,38,38,38,38,38,38,38,38,38,38,38,38,38,38,38,38,38,38,38,38,38
16,16,16,16,16,16,16,16,16,16,16,16,16,16,16,16,16,16,16,16,16,16,16,16,16,16,16,16,16,16,15,15,15,15,15,15,15,15,14,14,14,14,14,13,13,13,13,14,14,14,14,15,15,15,16,16,16,17,17,18,37,37,37,37,37,37,37,37,37,37,37,37,37,37,37,37,37,37,37,37,37,37,37,37,37,37,37,37,37,37,37,37,37,37,37,37,37,37,37,37
16,16,16,16,16,16,16,16,16,16,16,16,16,16,16,16,16,16,16,15,15,15,15,15,15,15,15,15,15,15,15,15,14,14,14,14,14,14,14,14,13,13,13,13,13,13,13,13,14,14,14,15,15,15,15,16,16,16,36,36,36,36,36,36,36,36,36,36,36,36,36,36,36,36,36,36,36,36,36,36,36,36,36,36,36,36,36,36,36,36,36,36,36,36,36,36,36,36,36,36
15,15,15,15,15,15,15,15,15,15,15,15,15,15,15,15,15,15,15,15,15,15,15,15,14,14,14,14,14,14,14,14,14,14,14,13,13,13,13,13,13,12,12,12,13,13,13,13,14,14,14,14,15,15,15,16,16,35,35,35,35,35,35,35,35,35,35,35,35,35,35,35,35,35,35,35,35,35,35,35,35,35,35,35,35,35,35,35,35,35,35,35,35,35,35,35,35,35,35,35
15,15,15,15,15,15,15,15,14,14,14,14,14,14,14,14,14,14,14,14,14,14,14,14,14,14,14,13,13,13,13,13,13,13,13,13,12,12,12,12,12,12,12,12,12,13,13,13,13,14,14,14,15,15,15,34,34,34,34,34,34,34,34,34,34,34,34,34,34,34,34,34,34,34,34,34,34,34,34,34,34,34,34,34,34,34,34,34,34,34,34,34,34,34,34,34,34,34,34,34
14,14,14,14,14,14,14,14,14,14,14,14,14,14,14,14,13,13,13,13,13,13,13,13,13,13,13,13,13,13,13,12,12,12,12,12,12,12,11,11,11,12,12,12,12,13,13,13,13,14,14,14,15,33,33,33,33,33,33,33,33,33,33,33,33,33,33,33,33,33,33,33,33,33,33,33,33,33,33,33,33,33,33,33,33,33,33,33,33,33,33,33,33,33,33,33,33,33,33,33
13,13,13,13,13,13,13,13,13,13,13,13,13,13,13,13,13,13,13,13,13,12,12,12,12,12,12,12,12,12,12,12,12,11,11,11,11,11,11,11,11,12,12,12,12,13,13,13,13,14,14,32,32,32,32,32,32,32,32,32,32,32,32,32,32,32,32,32,32,32,32,32,32,32,32,32,32,32,32,32,32,32,32,32,32,32,32,32,32,32,32,32,32,32,32,32,32,32,32,32
13,13,13,13,13,12,12,12,12,12,12,12,12,12,12,12,12,12,12,12,12,12,12,12,12,11,11,11,11,11,11,11,11,11,11,10,11,11,11,11,11,12,12,12,12,13,13,13,14,31,31,31,31,31,31,31,31,31,31,31,31,31,31,31,31,31,31,31,31,31,31,31,31,31,31,31,31,31,31,31,31,31,31,31,31,31,31,31,31,31,31,31,31,31,31,31,31,31,31,31
12,12,12,12,12,12,12,12,12,12,12,12,12,11,11,11,11,11,11,11,11,11,11,11,11,11,11,11,11,10,10,10,10,10,10,10,11,11,11,11,11,12,12,12,12,13,30,30,30,30,30,30,30,30,30,30,30,30,30,30,30,30,30,30,30,30,30,30,30,30,30,30,30,30,30,30,30,30,30,30,30,30,30,30,30,30,30,30,30,30,30,30,30,30,30,30,30,30,30,30
11,11,11,11,11,11,11,11,11,11,11,11,11,11,11,11,11,11,11,10,10,10,10,10,10,10,10,10,10,10,10,10,10,10,10,10,11,11,11,11,11,12,12,29,29,29,29,29,29,29,29,29,29,29,29,29,29,29,29,29,29,29,29,29,29,29,29,29,29,29,29,29,29,29,29,29,29,29,29,29,29,29,29,29,29,29,29,29,29,29,29,29,29,29,29,29,29,29,29,29
10,10,10,10,10,10,10,10,10,10,10,10,10,10,10,10,10,10,10,10,10,10,10,9,9,9,9,9,9,9,9,10,10,10,10,10,11,11,11,12,28,28,28,28,28,28,28,28,28,28,28,28,28,28,28,28,28,28,28,28,28,28,28,28,28,28,28,28,28,28,28,28,28,28,28,28,28,28,28,28,28,28,28,28,28,28,28,28,28,28,28,28,28,28,28,28,28,28,28,28
10,10,10,10,10,10,10,10,10,10,9,9,9,9,9,9,9,9,9,9,9,9,9,9,9,9,9,9,9,9,10,10,10,10,10,11,27,27,27,27,27,27,27,27,27,27,27,27,27,27,27,27,27,27,27,27,27,27,27,27,27,27,27,27,27,27,27,27,27,27,27,27,27,27,27,27,27,27,27,27,27,27,27,27,27,27,27,27,27,27,27,27,27,27,27,27,27,27,27,27
9,9,9,9,9,9,9,9,9,9,9,9,9,9,9,9,9,8,8,8,8,8,8,9,9,9,9,9,9,9,10,26,26,26,26,26,26,26,26,26,26,26,26,26,26,26,26,26,26,26,26,26,26,26,26,26,26,26,26,26,26,26,26,26,26,26,26,26,26,26,26,26,26,26,26,26,26,26,26,26,26,26,26,26,26,26,26,26,26,26,26,26,26,26,26,26,26,26,26,26
8,8,8,8,8,8,8,8,8,8,8,8,8,8,8,8,8,8,8,8,8,8,8,9,9,10,25,25,25,25,25,25,25,25,25,25,25,25,25,25,25,25,25,25,25,25,25,25,25,25,25,25,25,25,25,25,25,25,25,25,25,25,25,25,25,25,25,25,25,25,25,25,25,25,25,25,25,25,25,25,25,25,25,25,25,25,25,25,25,25,25,25,25,25,25,25,25,25,25,25
8,8,8,8,8,8,8,8,7,7,7,7,7,7,8,8,8,8,9,24,24,24,24,24,24,24,24,24,24,24,24,24,24,24,24,24,24,24,24,24,24,24,24,24,24,24,24,24,24,24,24,24,24,24,24,24,24,24,24,24,24,24,24,24,24,24,24,24,24,24,24,24,24,24,24,24,24,24,24,24,24,24,24,24,24,24,24,24,24,24,24,24,24,24,24,24,24,24,24,24
7,7,7,7,7,7,7,7,7,8,9,23,23,23,23,23,23,23,23,23,23,23,23,23,23,23,23,23,23,23,23,23,23,23,23,23,23,23,23,23,23,23,23,23,23,23,23,23,23,23,23,23,23,23,23,23,23,23,23,23,23,23,23,23,23,23,23,23,23,23,23,23,23,23,23,23,23,23,23,23,23,23,23,23,23,23,23,23,23,23,23,23,23,23,23,23,23,23,23,23
22,22,22,22,22,22,22,22,22,22,22,22,22,22,22,22,22,22,22,22,22,22,22,22,22,22,22,22,22,22,22,22,22,22,22,22,22,22,22,22,22,22,22,22,22,22,22,22,22,22,22,22,22,22,22,22,22,22,22,22,22,22,22,22,22,22,22,22,22,22,22,22,22,22,22,22,22,22,22,22,22,22,22,22,22,22,22,22,22,22,22,22,22,22,22,22,22,22,22,22
21,21,21,21,21,21,21,21,21,21,21,21,21,21,21,21,21,21,21,21,21,21,21,21,21,21,21,21,21,21,21,21,21,21,21,21,21,21,21,21,21,21,21,21,21,21,21,21,21,21,21,21,21,21,21,21,21,21,21,21,21,21,21,21,21,21,21,21,21,21,21,21,21,21,21,21,21,21,21,21,21,21,21,21,21,21,21,21,21,21,21,21,21,21,21,21,21,21,21,21
20,20,20,20,20,20,20,20,20,20,20,20,20,20,20,20,20,20,20,20,20,20,20,20,20,20,20,20,20,20,20,20,20,20,20,20,20,20,20,20,20,20,20,20,20,20,20,20,20,20,20,20,20,20,20,20,20,20,20,20,20,20,20,20,20,20,20,20,20,20,20,20,20,20,20,20,20,20,20,20,20,20,20,20,20,20,20,20,20,20,20,20,20,20,20,20,20,20,20,20
19,19,19,19,19,19,19,19,19,19,19,19,19,19,19,19,19,19,19,19,19,19,19,19,19,19,19,19,19,19,19,19,19,19,19,19,19,19,19,19,19,19,19,19,19,19,19,19,19,19,19,19,19,19,19,19,19,19,19,19,19,19,19,19,19,19,19,19,19,19,19,19,19,19,19,19,19,19,19,19,19,19,19,19,19,19,19,19,19,19,19,19,19,19,19,19,19,19,19,19
18,18,18,18,18,18,18,18,18,18,18,18,18,18,18,18,18,18,18,18,18,18,18,18,18,18,18,18,18,18,18,18,18,18,18,18,18,18,18,18,18,18,18,18,18,18,18,18,18,18,18,18,18,18,18,18,18,18,18,18,18,18,18,18,18,18,18,18,18,18,18,18,18,18,18,18,18,18,18,18,18,18,18,18,18,18,18,18,18,18,18,18,18,18,18,18,18,18,18,18
17,17,17,17,17,17,17,17,17,17,17,17,17,17,17,17,17,17,17,17,17,17,17,17,17,17,17,17,17,17,17,17,17,17,17,17,17,17,17,17,17,17,17,17,17,17,17,17,17,17,17,17,17,17,17,17,17,17,17,17,17,17,17,17,17,17,17,17,17,17,17,17,17,17,17,17,17,17,17,17,17,17,17,17,17,17,17,17,17,17,17,17,17,17,17,17,17,17,17,17
16,16,16,16,16,16,16,16,16,16,16,16,16,16,16,16,16,16,16,16,16,16,16,16,16,16,16,16,16,16,16,16,16,16,16,16,16,16,16,16,16,16,16,16,16,16,16,16,16,16,16,16,16,16,16,16,16,16,16,16,16,16,16,16,16,16,16,16,16,16,16,16,16,16,16,16,16,16,16,16,16,16,16,16,16,16,16,16,16,16,16,16,16,16,16,16,16,16,16,16
15,15,15,15,15,15,15,15,15,15,15,15,15,15,15,15,15,15,15,15,15,15,15,15,15,15,15,15,15,15,15,15,15,15,15,15,15,15,15,15,15,15,15,15,15,15,15,15,15,15,15,15,15,15,15,15,15,15,15,15,15,15,15,15,15,15,15,15,15,15,15,15,15,15,15,15,15,15,15,15,15,15,15,15,15,15,15,15,15,15,15,15,15,15,15,15,15,15,15,15
14,14,14,14,14,14,14,14,14,14,14,14,14,14,14,14,14,14,14,14,14,14,14,14,14,14,14,14,14,14,14,14,14,14,14,14,14,14,14,14,14,14,14,14,14,14,14,14,14,14,14,14,14,14,14,14,14,14,14,14,14,14,14,14,14,14,14,14,14,14,14,14,14,14,14,14,14,14,14,14,14,14,14,14,14,14,14,14,14,14,14,14,14,14,14,14,14,14,14,14
13,13,13,13,13,13,13,13,13,13,13,13,13,13,13,13,13,13,13,13,13,13,13,13,13,13,13,13,13,13,13,13,13,13,13,13,13,13,13,13,13,13,13,13,13,13,13,13,13,13,13,13,13,13,13,13,13,13,13,13,13,13,13,13,13,13,13,13,13,13,13,13,13,13,13,13,13,13,13,13,13,13,13,13,13,13,13,13,13,13,13,13,13,13,13,13,13,13,13,13
12,12,12,12,12,12,12,12,12,12,12,12,12,12,12,12,12,12,12,12,12,12,12,12,12,12,12,12,12,12,12,12,12,12,12,12,12,12,12,12,12,12,12,12,12,12,12,12,12,12,12,12,12,12,12,12,12,12,12,12,12,12,12,12,12,12,12,12,12,12,12,12,12,12,12,12,12,12,12,12,12,12,12,12,12,12,12,12,12,12,12,12,12,12,12,12,12,12,12,12
11,11,11,11,11,11,11,11,11,11,11,11,11,11,11,11,11,11,11,11,11,11,11,11,11,11,11,11,11,11,11,11,11,11,11,11,11,11,11,11,11,11,11,11,11,11,11,11,11,11,11,11,11,11,11,11,11,11,11,11,11,11,11,11,11,11,11,11,11,11,11,11,11,11,11,11,11,11,11,11,11,11,11,11,11,11,11,11,11,11,11,11,11,11,11,11,11,11,11,11
10,10,10,10,10,10,10,10,10,10,10,10,10,10,10,10,10,10,10,10,10,10,10,10,10,10,10,10,10,10,10,10,10,10,10,10,10,10,10,10,10,10,10,10,10,10,10,10,10,10,10,10,10,10,10,10,10,10,10,10,10,10,10,10,10,10,10,10,10,10,10,10,10,10,10,10,10,10,10,10,10,10,10,10,10,10,10,10,10,10,10,10,10,10,10,10,10,10,10,10
9,9,9,9,9,9,9,9,9,9,9,9,9,9,9,9,9,9,9,9,9,9,9,9,9,9,9,9,9,9,9,9,9,9,9,9,9,9,9,9,9,9,9,9,9,9,9,9,9,9,9,9,9,9,9,9,9,9,9,9,9,9,9,9,9,9,9,9,9,9,9,9,9,9,9,9,9,9,9,9,9,9,9,9,9,9,9,9,9,9,9,9,9,9,9,9,9,9,9,9
8,8,8,8,8,8,8,8,8,8,8,8,8,8,8,8,8,8,8,8,8,8,8,8,8,8,8,8,8,8,8,8,8,8,8,8,8,8,8,8,8,8,8,8,8,8,8,8,8,8,8,8,8,8,8,8,8,8,8,8,8,8,8,8,8,8,8,8,8,8,8,8,8,8,8,8,8,8,8,8,8,8,8,8,8,8,8,8,8,8,8,8,8,8,8,8,8,8,8,8
7,7,7,7,7,7,7,7,7,7,7,7,7,7,7,7,7,7,7,7,7,7,7,7,7,7,7,7,7,7,7,7,7,7,7,7,7,7,7,7,7,7,7,7,7,7,7,7,7,7,7,7,7,7,7,7,7,7,7,7,7,7,7,7,7,7,7,7,7,7,7,7,7,7,7,7,7,7,7,7,7,7,7,7,7,7,7,7,7,7,7,7,7,7,7,7,7,7,7,7
6,6,6,6,6,6,6,6,6,6,6,6,6,6,6,6,6,6,6,6,6,6,6,6,6,6,6,6,6,6,6,6,6,6,6,6,6,6,6,6,6,6,6,6,6,6,6,6,6,6,6,6,6,6,6,6,6,6,6,6,6,6,6,6,6,6,6,6,6,6,6,6,6,6,6,6,6,6,6,6,6,6,6,6,6,6,6,6,6,6,6,6,6,6,6,6,6,6,6,6
5,5,5,5,5,5,5,5,5,5,5,5,5,5,5,5,5,5,5,5,5,5,5,5,5,5,5,5,5,5,5,5,5,5,5,5,5,5,5,5,5,5,5,5,5,5,5,5,5,5,5,5,5,5,5,5,5,5,5,5,5,5,5,5,5,5,5,5,5,5,5,5,5,5,5,5,5,5,5,5,5,5,5,5,5,5,5,5,5,5,5,5,5,5,5,5,5,5,5,5
4,4,4,4,4,4,4,4,4,4,4,4,4,4,4,4,4,4,4,4,4,4,4,4,4,4,4,4,4,4,4,4,4,4,4,4,4,4,4,4,4,4,4,4,4,4,4,4,4,4,4,4,4,4,4,4,4,4,4,4,4,4,4,4,4,4,4,4,4,4,4,4,4,4,4,4,4,4,4,4,4,4,4,4,4,4,4,4,4,4,4,4,4,4,4,4,4,4,4,4
3,3,3,3,3,3,3,3,3,3,3,3,3,3,3,3,3,3,3,3,3,3,3,3,3,3,3,3,3,3,3,3,3,3,3,3,3,3,3,3,3,3,3,3,3,3,3,3,3,3,3,3,3,3,3,3,3,3,3,3,3,3,3,3,3,3,3,3,3,3,3,3,3,3,3,3,3,3,3,3,3,3,3,3,3,3,3,3,3,3,3,3,3,3,3,3,3,3,3,3
2,2,2,2,2,2,2,2,2,2,2,2,2,2,2,2,2,2,2,2,2,2,2,2,2,2,2,2,2,2,2,2,2,2,2,2,2,2,2,2,2,2,2,2,2,2,2,2,2,2,2,2,2,2,2,2,2,2,2,2,2,2,2,2,2,2,2,2,2,2,2,2,2,2,2,2,2,2,2,2,2,2,2,2,2,2,2,2,2,2,2,2,2,2,2,2,2,2,2,2
1,1,1,1,1,1,1,1,1,1,1,1,1,1,1,1,1,1,1,1,1,1,1,1,1,1,1,1,1,1,1,1,1,1,1,1,1,1,1,1,1,1,1,1,1,1,1,1,1,1,1,1,1,1,1,1,1,1,1,1,1,1,1,1,1,1,1,1,1,1,1,1,1,1,1,1,1,1,1,1,1,1,1,1,1,1,1,1,1,1,1,1,1,1,1,1,1,1,1,1